ID,TITLE,SOLVED,NIVEL,DESCRIPTION
2546,Allowance,272,8,"It is getting harder to mrs. Marie to manage the allowance she gives to her grandchildren. Because of that, she asked you to write a program to help her with this task.
Mrs. Marie has N grandchildren, numbered from 1 to N. Initially, grandchild i earns Mi dollars as allowance from his grandma. Mrs. Marie may increase the allowance given to some of his grandchildren many times. When she wants to increase the allowance, she chooses two integers i and j and increases the allowance of all her grandchildren with numbers between i and j, inclusive, by the same amount v. For example, if she decides to increase the allowance by v=10 dollars for all grandchildren with numbers between i=1 and j=3, then the allowance of the grandchildren numbered 1, 2 and 3 will be increased by 10 dollars each.
Also, at any time, she may want to ask who earns the most among the grandchildren between numbers i and j, inclusive. Help mrs. Marie to answer all her queries!"
2559,Friday The 13th,72,10,"Today is Friday the 13th! According to traditions, both numbers 13 and 7 are considered unlucky numbers. Due to this, some people are careful about these particular numbers!
Flavio has a sequence of N integers numbers, numbered from 1 to N. He wants to execute many operations with it. There are three possible types of operations:
Given an integer i and an integer v, replace i-th number by v;
Given integers i, j, z and v, with z=13 or 7, replace every occurrence of number z by v between i-th number and j-th number, inclusive;
Given integers i and j, calculate the sum of all elements in the sequence between i-th number and j-th number, inclusive.
For example, if Flavio’s initial sequence is (2, 13, 5, 13, 7) and we replace the 1-th number by 3, the sequence is now (3, 13, 5, 13, 7). If every occurrence of 13 between 4-th and 5-th number are replaced by 6, the sequence is now (3, 13, 5, 6, 7). Finally, the sum of all elements between 2-th and 4-th number is equal to 13 + 5 + 6 = 24.
For each operation of the third type, calculate and print its answer."
2560,Aquatic Surf,421,9,"Nlogônia is hosting the Aquatic Surf World Cup this month. In this sport, the athlete stays N minutes inside an aquarium doing some acrobatics with his surfboard, trying to impress the judges.
The judges give a grade to the athlete each minute. Thus, an athlete receives a sequence of N grades for each performance.
A battery (of grades) is a continuous sequence of B grades. The result of a battery is equal to the sum of the grades in it, except for the highest and the lowest grade, that are discarded. Hence, the result of the battery (2, 3, 7, 5), for example, is equal to 8.
The final score of the athlete is equal to the sum of the results of all batteries of size B in his sequence of N grades. Hence, if the grades are indexed from 1 to N, we sum the result of the battery with the grades from 1 to B, with the result of the battery with the grades from 2 to B+1, etc., until the battery with the grades from N-B+1 to N.
Given the sequence of grades, determine the final score."
2593,Eachians I,906,5,"The Eachians are very concerned about the text that has received from neighboring planet. They suspect that there is a pattern in the number represented by a word position in the text. These positions together, they say, represents a key to deactivate a bomb that is about to explode the EACH planet.
You were then summoned to developing a program that receive a text and a set of words and return the first position of each word that is present in the text.
Constraints:
Word: can contain only lowercase letters of the alphabet ('a'-'z').
Text: can contain only lowercase letters of the alphabet ('a'-'z') separated by one whitespace. Text contains no line break ('\n') and no special characters.
The size of the words will be never greater than the size of the text.
Position: You should consider that the first position of the text should be position 0 (zero). Thus, in a text with 50 characters, the last position will be the 49.
You should only search for the exactly word. For example, the word SHIP is different from FRIENDSHIP."
2594,Eachians II,"1,125",3,"The Eachians are still worried after They found out a new bomb and received a mount of texts from the neighboring planet. They still suspect that there is a pattern in the number represented by a word position in the text. These positions together, they say, represents a key to deactivate a bomb that is about to explode the EACH planet.
You were then summoned to developing a program that receive a set of a little texts followed by the words and the program need to return the first position of each word that is present in each text.
Constraints:
Word: can contain only lowercase letters of the alphabet ('a'-'z').
Text: can contain only lowercase letters of the alphabet ('a'-'z') separated by one whitespace. Text contains no line break ('\n') and no special characters.
The size of the words will be never greater than the size of the text.
Position: You should consider that the first position of the text should be position 0 (zero). Thus, in a text with 50 characters, the last position will be the 49.
You should only search for the exactly word. For example, the word SHIP is different from FRIENDSHIP."
2633,Barbecue at Yuri’s,"2,740",2,"Yuri is a good friend. We always do the ""brothers' barbecue ;)"" at his house! This time, the reason for the barbecue is that the brothers are finally starting to pass on good contests! So today we'll have a special edition of barbecue, with alcohol and soap soccer!
The soap soccer company is taking a long time to fill the field and Yuri, already bored, began to get distracted on the following question: if we baked the meat by the expiration date, what would be the resulting sequence of meat pieces? Since Yuri's MacBook is too far away (and laziness is too close), he asked for your help in answering this question."
2654,Godofor,"1,085",5,"After the death of Ares, the last godofor, the other gods decided to make a contest to decide who will be new godofor. But creatures of various universes had an interest in the place. Because there are so many candidates, is very hard to the gods select one of them, so they decided to resort to you, the god of programming, they want you to develop a program that decides who will be the new godofor based on the criteria defined by the gods.
Candidates will be evaluated based on three attributes, candidate's power level, how many gods the candidate has already killed and how many times the candidate has already died. The godofor must be the most powerful candidate, in the case of a tie, it must be the candidate who killed more gods, if a tie occurs again, the chosen one will be the candidate who died the least, if even the tie persists, the godofor will be the candidate with the lowest name Lexicographically."
2655,Dangerous Trail,516,8,"Geraldo de Rívea is a witcher, and like every good witcher he prepares well, before facing a monster.
Geraldo wants to travel to Novigrad, for this he will have to cross a road that starts in the south and goes north straight, the big problem is that in every integer coordinate of that road there is a monster.
Since Geraldo does not like being caught unwarned he wants to know how many monster types exist from the X coordinates to the Y coordinate of that road.
To solve this problem Geraldo asked you to do a program that performs the following operations:
1 L R - Print how many different monsters there are from coordinate L to R on the road. 
2 C T - The monster of coordinate C is now a monster of type T."
2656,Rhombus,67,10,"Given a grid with its initial values set to zero and Q queries of the types:
1 x y: Places the value one at the position (x, y) of the board.
2 x y: Set the value zero to the (x, y) position of the board.
3 x y d: Returns the sum of two values of all positions of the board that are from a Manhattan distance of at most D from the position (x, y)."
2658,Intergalactic Chords,600,9,"The intergalactic piano sonata composition marathon is trying to make life difficult for the competitors, as more and more beings of higher intelligence are participating. The piano is composed of N keys, numbered from 0 to N-1. The intergalactic tonal system has 9 musical notes, with values from 0 to 8. Initially all keys of the piano are associated with the same note 1. The competitor will play a sequence of chords. Each intergalactic chord is composed of two distinct keys, a and b, 0 ≤ a < b < N. When the chord is played, the piano will output the most frequent note, f, among all keys in the interval [a, b]. If there is more than one most frequent note, it will emit the largest of them. Immediately after playing the note, the piano changes the note associated with all keys in the interval [a, b]. The new note associated with key k, a ≤ k ≤ b, will be the previous plus f, modulo 9.
For example, if at a given moment the notes associated with a piano of N = 15 keys are
and the chord [3, 9] is played, then the most frequent note will be 4 and the new notes after the chord will be:
Given a sequence of Q chords, your program should print the notes that will be associated with the piano keys after all the chords in the sequence have been played."
2671,Decoding the Text,93,9,"Your colleague has a brilliant idea to encode a text, he will use an (almost) complete binary tree with the text distributed in the breadth, and it will present the result of an in order search of the tree. See the example, encoding: ""A simple text"".
The result we will get on the search will be: ""sot mseiUmxp lte"". The problem is that although it can easily encode the texts, it can not decode them, and has asked you for an algorithm that receives a coded text and decodes it."
2693,Van,"1,957",3,"After a nice day of class, it's up to the vans to take students to their homes. But what many do not know is that in addition to the expenses and maintenance of the van the driver needs to have a route to deliver the passengers in their homes. As you are the computer boy, he asked for your help developing this route by ordering the students from a distance (from lowest to highest), by region (in alphabetical order) and last by name."
2698,Daunting Device,128,10,"In a recent trip to an excavation site in the Caribbean island of Saint Basil, you found a mysterious device with some instructions resembling a puzzle. Your local guide Vibenas tells you that if you solve the puzzle, the device might show you the place where a big treasure left by the old merciless pirate Lyerpes is hidden.
The device has a tape with L cells indexed from 0 to L − 1. Each cell has a color than can be changed with commands to the device. Each color is encoded by an integer, and initially all cells have the same color. The instructions that you found represent N steps to be performed before the device shows the way to the treasure. Each step is described using four integers P, X, A and B . The instructions say that to complete the step you must first count the number of cells currently having color P. Let this number be S. Then you must calculate the values M1 = (A + S2) mod L, M2 = (A +  (S + B)2) mod L.
Finally you have to make all cells within the closed interval [min( M1 , M2) , max( M1 , M2)] to be of color X.
After the exhausting task of processing the N steps required by the device, you still have one job: given a color that appears the greatest number of times in the device tape after all steps (that is, a most frequent color), you must go to the shipwreck of Lyerpes’ legendary vessel and say aloud the number of cells having that color. Note that this number is unique even if more than one color appears the greatest number of times in the device tape after all steps.
Doing all those calculations on the device will take ages but you, as a renowned programmer, can create a program that quickly indicates the answer for the puzzle. After that, the real hard part of your mission will be to find out where is the shipwreck of Lyerpes’ old vessel."
2700,Fundraising,245,7,"A prestigious politician aiming for presidency next year is planning a fundraising dinner for her cam- paign. She has a list of some wealthy people in the country and wants to invite them in a way that the amount of money raised is as great as possible.
Sometimes wealthy people have futile behavior and don’t like the idea that someone richer or prettier than them exists. Every time someone like this meets another person who is strictly prettier, but not strictly richer, then an argument ensues. Likewise, if they meet another person who is strictly richer, but not strictly prettier, an argument occurs as well. These two situations are the only possible causes of an argument involving two persons. Thus, two persons do not have an argument if one of them is strictly prettier and strictly richer than the other. Also, two persons do not have an argument if they are equally rich and equally pretty.
Since the presidential candidate wants to raise as much money as possible, an argument should be avoided at all costs, as it could ruin the campaign. Given the characteristics of some wealthy people in the country, you must find a guest list that maximizes the donations while ensuring that no argument will happen during the dinner."
2720,Large Presents,801,7,"Little Bob just loves Christmas! He likes the food, the classic songs, and, specially, he loves the presents Santa Claus gives him every year!
As in previous years, little Bob will receive exactly K presents from all the N presents available from Santa Claus. Now, he must decide which presents he will ask the good old man to give him.
As every little boy think, the larger is the present's package, the cooler it is! Hence, he decided to ask for the presents with the K greater volumes. Given the description of all N presents available from Santa Claus, determine the K ones that little Bob should ask for."
2729,Shopping List,"3,196",4,"Valentina is a very dedicated woman and she works late every day. To save her time, she writes down the items at the same time she remembers. She uses a mobile app for this task.
The problem is that the application does not delete duplicate items and as Valentina is distracted, she frequently notes the same item more than once and the list gets too long. You should improve the app used by Valentina. Make a code that excludes duplicate items from the shopping list and sorts them in alphabetical order."
2734,Trading Presents,320,10,"Hermione recently noticed that, even though her children always got the same N number of christmas presents, her daughter Rose always gets a lot dolls and make-up for while her son Hugo got all sorts of games. She thought that was unfair, so she did the following: she gave each present a “fun score”, and decided would switch some of Rose’s presents with Hugo’s presents in order to make the sum of fun scores for each child as similar as possible. Given the fun score for each present, calculate what is the smallest difference of total fun score that she can achieve, given that she can make any number of trades, but the number of presents for each child should remain the same."
2792,Golnaldinho,359,8,"Golnaldinho was a brilliant football player, having marked passages in all the teams in which he acted during his career, whether national as Grêmio, Flamengo and Atlético-MG, or international, such as Milan, PSG and Barcelona. His genius with the ball in his foot earned him several calls to represent the Brazilian National Team, as well as a legion of fans around the world. This year, in search of new challenges, Golnaldinho decided to retire the boots and venture into the world of computing.
This news surprised several people who did not know the love of Golnaldinho by algorithms and data structures. Such love made the former player spend hours studying the subject while concentrating on football matches. During a press conference at which he announced his retirement, he himself stated that as he improved his programming skills, he was better at field performance.
During his studies, Golnaldinho found a book of computational problems and he was intrigued by a specific problem, because he could not solve it. Competitive as he is and knowing his programming skills, Golnaldinho challenged him to solve it.
The statement of such a problem is as follows:
Suppose an array with
N
N
integers, where the i-th position of this array is occupied by the value
i
i
hat is, position 1 is occupied by value 1, position 2 is occupied by value 2 and so on, as can be visualized in the figure below:
Kaka would like to remove all the numbers from this array. However, exclusions to be made must follow a specific order. Thinking about this, Kaká implemented a function that deletes a single element at a time, given the index of the element to be excluded. That is, if Kaka wants to delete element 2 in the array above, it would suffice to inform the index of the element, which in this case is equal to 2. As a result, the function would return the following array after performing the deletion:
Now, if Kaká wanted to delete element 4 from the array, it would suffice to inform the index that in this case is equal to 3. The function would return:
This procedure is performed until there is no more element in the array.
Kaka is having trouble automating calls to this function. This is because you could not implement a script that provides the order of indexes to be excluded, respecting the order of deletion of the elements. That is, if for an array with
N
=
5
the order of deletion of the elements is {2,4,5,1,3}, the order of the indices will be {2,3,3,1,1}. Could you help with this implementation?"
2800,Playing with Queries,163,9,"Dabriel is playing with his array and as he is very methodical he thought that he should always know the minimum amount of elements that must be changed so that a given subarray has a value W. In other words, he wants to be able to perform two operations on his array, are they:
   1 - Change the value of the element of position X to the value W;
   2 - Inform the minimum amount of elements that need to be changed from the interval [X, Y] so that all elements have the value W."
2805,Binarizing the Matrix,51,5,"Dabriel is playing around with his beautiful binary matrix, where he can put 0 or 1 in each position of it. As we already know, Dabriel loves to create rules and games, so he proposed the following:
   - For every cell with a value of 1, the whole submatrix that goes from the leftmost corner to it must also have a value of 1;
   - Every cell in the matrix has to receive a binary value;
   - Cells that already have some value can not be changed.
With that in mind, Dabriel wants to know how many different ways there are to accomplish the game. Can you figure it out?"
2821,Cards Distribution,21,5,"Alan Parina loves to create new games with playing cards. Now he created a new game to play with his friends and wants your help to build a program to do a distribution of the cards based on their values (A is worth 1, J is worth 11, Q is worth 12 and K is worth 13) and in some small rules that are presented below.
Alan selects a number of cards that are in a stack and distributes them sequentially to his friends, from first to last. He can see the value of each card and must ensure that the division is as balanced as possible between all players, considering just the sum of the value of their cards. To make it clear, if for example Alan had 4 cards (3, 6, 2 and 10) to distribute between two players, he would have to give cards 3, 6 and 2 to the first player (sum = 11) and the card 10 to the second player. The division 9 and 12 would be discard because the first rule of the game is that the maximum sum must be as small as possible (11 is less than 12).
There is a second rule that must be respected in this game: once the maximum sum value is established, each player, starting with the first one, should try to keep a sum as close as possible to this value. This can be seen in the first test case (below). By distributing A, 7, 3, 2, 9, 5, 6, J, K, 10, 4 and A cards between 3 players, the first player would get the first 6 cards (A, 7, 3, 2, 9 and 5) whose sum would be 27. The second player would have the next two cards (6 and J) that would sum 17 and the last player would have four cards (K, 10, 4 and A) that would result in 28. The division 22, 22 and 28 wont be accetable because the first player could still take the value card 5 to get 27 (less than limit 28 in this case). Nor could divide into 21, 30, and 15, because we would be surpassing the smallest possible maximum value (which is 28). So we have that the maximum of cards for one of the players would be 6 and the maximum value obtained from the sum of these cards would be 28, which is the answer for the first test case presented below.
Obviously we have others rules to play this game, but this can wait for another history."
2848,Rangel and the Array Game I,393,6,"Always after the programming competitions the participants usually interact. Thinking about it, Rangel is developing an interesting game for the participants to play after a competition. This game will be known as the Array  Game.
The Array Game works as follows:
A array with N integers is generated randomly and shown for 10 seconds for the challengers.
Then follows Q rounds where players must say how many times the Kth smaller element appears in a given range.
Win the round closest to the result.
This year Rangel called his friends Gugu and Dabriel to test the new game and asked you to design the judge to say who Kth is their frequency in the break and who wins the ith round."
2849,Rangel and the Array Game II,172,10,"Always after the programming competitions the participants usually interact. Thinking about it, Rangel is developing an interesting game for the participants to play after a competition. This game will be known as the Array  Game.
The Array Game works as follows:
A array with N integers is generated randomly and shown for 10 seconds for the challengers.
Then follows Q rounds where players must say how many times the Kth smaller element appears in a given range.
Win the round closest to the result.
This year Rangel called his friends Gugu and Dabriel to test the new game and asked you to design the judge to say who Kth is their frequency in the break and who wins the ith round."
2855,Lucky Numbers,453,7,"A lucky number is a number in a given sequence that survives the following exclusion process: Initially every second element is deleted. After that, every third element is deleted and so on until the number in question is in a lower position than the next index to be deleted.
For example, in the sequence [1,2,3,4,5,6,7,8,9,10,11,12,13 ...] we would like to know if the numbers 7 and 9 are lucky. After the first pass we will have [1,3,5,7,9,11,13 ...], after the second pass we will have [1,3,7,9,13 ...]. After the fourth pass [1,3,7,13...]. Thus we can conclude that the number 7 is lucky and that the number 9 is an unlucky number in this sequence.
Alfredo enjoyed the game but is tired of erasing and rewriting each sequence to find out what the lucky numbers are. Can you write a program to determine if given number in a sequence is a lucky number?"
2857,SpeedWagon Flow,193,7,"Employees of the AHDCW (Association of Human Density Control in Wagons) are working to generate some statistics on how many people use trains as a means of transportation and how they choose which wagon to enter.
They noted, from time to time, how many people got into certain wagons. To generate satisfactory data, employees need to know at certain times how many different people are within two ranges of wagons.
They need your help and all they gave you was a spreadsheet with the number N of wagons (from 1 to N from left to right), and the M activities that occurred on the day. The activities can be type 1 or type 2:
1 X Y - Means that Y people got into the X wagon.
2 A B C D - It means that they want to know the number of different people in the wagons of the intervals [A, B] and [C, D].
Consider that initially all wagons are empty.
Follows an illustration of the wagons at one point:
If there is an activity of type 2 with (A=2, B=4, C=3, D=5), the answer will be 8, since there are 8 distinct people in these two intervals."
