ID,TITLE,SOLVED,NIVEL,DESCRIPTION
2122,Voting at Yekaterinburg,63,10,"Yekaterinburg, Russia, is a city with a curious voting system. In an election in which there are V vacancies for a position, each voter is entitled to vote V times, arranged in order of preference. Thus, if there is, for example, 3 vacancies in the Senate, each voter votes for up to 3 names. The candidates with the highest number of votes will be elected, regardless the preference of the voters. Only if there is a tie the order given by the voters become important. In this case, the candidate with the most nominations for the first place wins. If still a tie, for second place, and so on. If two or more candidates who are in the a position to be elected have exactly the same number of nominations in all positions, all are elected (it may even exceed the number of vacancies). Candidates with zero votes can be elected if there is still places available."
2136,Friends of Habay,"2,723",4,"Every end of year there is a party in Fantastic Education Institution (FEI). Early in July, the registration is open to take part in it. At registration, the user can choose whether to be ""O Amigo do Habay"" (The Friend of Habay) in the party or not. The most logical choice would be Yes, because it is a privilege to be The Friend of Habay, since he is the coolest person in FEI. However, there are some people who definitely don't want to be The Friend of Habay, and for unknown reasons.
Only one will be chosen. As a result, many students who chose the option Yes registered several times to increase their chance of being The Friend of Habay. The party organizer hired you to organize the website's registration, since there is a registration spam going on. The criteria to be the chosen one is the number of letters of the first name, and if there is more than one name with the same number of letters, wins the one who first registered. The final organization of the registered users should follow the order of choice (Yes or No), while respecting the alphabetical order.
Note: No one who chose the option No registered more than once."
2185,Playing with Pomekons,178,8,"After capturing many Pomekons, Dabriel and Guarte decided to create a game with the little monsters and who win the game, will be with them all.
The created game  works as follows: All Pomekons are separated into N stacks, they do not necessarily have the same number of monsters, the player of the round chooses a stack and removes one or more Pomekons. The game ends when there is no monster to be selected, and the player of this round is considered the loser.
As Dabriel is always the first to play and in the later rounds he's winning, Guarte is suspicious that Dabriel discovered a trick of the game, so he proposed a new rule. In the new version of the game, Guarte will select three integers X, Y, and V, and the number of monsters in each stack between X and Y, will have the V amount of Pomekons. Dabriel accepted the proposal, but he asked for your help to tell if he will have chance to win always that there is a change in the stacks. As Dabriel and Duarte are very good in this game, you can assume that both players always play the best possible way."
2186,"Bino, Prant and Indecision",61,10,"As you may already know, Prant is a very indecisive kid, so it was very difficult for him to choose the name of his dog. After Prant choose the name S to his dog, Bino proposed a challenge. The Bino's challenge consisting of N rounds, and in each round can be performed one of the operations:
1 A B C: Returns the number of occurrences of a character C in the range between positions A and B. For example, for S = ""abcda"" A = 1, B = 5 and C = 'a', the answer is 2.
2 A B C: Finds the first and the last occurrence of a character C in the range between positions A and B. For example, for S = ""abcda"" A = 1, B = 5 and C = 'a', the first occurrence is in position 1, and the latter is in position 5.
3 A B: Inverts all letters in the range between positions A and B. For example, for S = ""abcd"" A = 2 and B = 4, after the operation S = ""adcb"".
4 A C: Adds a character C before the character of position A. For example, for S = ""abcd"" A = 2 and C = 'z', after the operation S = ""azbcd""."
2223,Pomekon Catalog,152,9,"After capturing several Pokemons, Dabriel decided to separate them into different stacks and apply some operations on them. As you all know, Dabriel is a Pomekon Master, then your knowledge with programming are very limited, in that it has requested your help to solve his problem.
Dabriel want to perform Q operations on the stacks, each operation can be two types as described below:
1 X Y K: Returns the number of Pomekon that exist in the interval between X and Y positions after the K-th operation type 2. It is ensured that the K-th operation has already been made.
2 X W: Update the total of Pomekons on the X stack with the value W."
2239,Hex Statistics,150,9,"Given a sequence of positive integers in hexadecimal, for example, S = [9af47c0b, 2,545,557, ff6447979], we define the sum (S) as the sum of all elements S. Now consider some permutation of the 16 hexadecimal digits, e.g. p = [4, 9; 5, 0, c, f, 3 d, 7, 8, b, 1, 2, 6, and]. From the S base sequence, we can define a transformed S[4] sequence, which is obtained by removing all ocorrêcias hexadecimal digit 4 of all integers of S, S[4] = [9af7c0b, 255557, ff67979]. Then we can remove the digit 9 and get S[4,9] = [af7c0b, 255557, ff677]. Following the order of the digits in the permutation p, we can define this way 16 sequences: S[4] , S[4,9] , S[4,9,5] ,...,S[4,9,5,a,0,c,f,3,d,7,8,b,1,2,6,e]. We are interested in adding all the elements of these 16 sequences:
total (S, p) = sum (S [4]) + sum (S [4,9]) + sum (S [4,9,5]) + ··· + sum (S [4,9,5 , a, 0, c, f, 3, d, 7.8, b, 1,2,6, e])
Clearly, all this depends on the permutation p used in subsequent removal. Given a positive integer N sequence in hex, your program must compute, considering all the possible permutations of the 16 hexadecimal digits: the minimum total, the maximum total and the sum of the total of all permutations. For the sum total of all the permutations, print the result 3b9aca07 module (109 + 7 in base 10)."
2240,Merging Trees,323,7,"Computing trees are foreign objects: the root is at the top and the leaves are down! A tree is a data structure comprised of N vertices connected by edges N-1 so that it is possible to reach an apex at any other vertex following the edges. In a rooted tree, each edge connects a vertex parent to a child vertex. A single vertex has no father, and is called the root. Thus, from the root it is possible to reach any other vertex of the tree following the edges in the direction of father to son.
In a ternary tree each node can have up to three children vertices, called the left, center and right. Handed a ternary tree is a rooted ternary tree in which no vertex has right child. A right hand ternary tree is a rooted ternary tree in which no vertex has left child. The root of a ternary tree is always a central apex. The figure below shows examples of a left-handed tree and a right hand tree.
The superposition S of a left-handed tree C with a right-hand tree D is a rooted ternary tree in which the root is either the root of C or the root of D or both roots, C and D, superimposed, and which contains the Structure of both superimposed trees. The figure below shows some trees formed by the superposition of the left-handed tree and the right tree of the figure above.
Note that in Figure (a) is the root vertex x (the right hand tree) and the pairs of vertices (a, y) and (c, u) are superposed. In Figure (b) is the root vertex (the left-handed tree) and the pairs of vertices (d, x), (e, y) and (f u) are superposed. In Figure (c) it is also the root vertex (the left-handed tree) and the pair of vertices (f, x) is superimposed.
Given a left-handed tree and a tree right hand, your task is to determine the minimum number of vertices needed to build a ternary tree which is a superposition of the given trees."
2241,Go--,741,4,"Go-- is to like the traditional game of Go, but is much easier! It is played on a square board of size N, initially empty, in which two players, one playing with black stones and the other with white, take turns placing a stone at a time into any cell that is not yet occupied. The game ends after each player put P stones on the board. Consider all possible square sub-areas of size from 1 to N. A sub-area belongs to the player who plays with black stones if it contains at least one black and no white stone stone. Likewise, a square sub-area belongs to the player who plays with white stones contains at least one white stone and no black stone. Note that the areas that contain no stone, or that contain both black as white stones, do not belong to any player.
This problem, given the final position of the board, your program should calculate how many square sub-areas belonging to each player, to find out who won the match. In the figure, black having 12 sub-fields (five dimension 1, six 2 dimensional and one dimension 3). White, who lost the match, have only 10."
2290,Apaixornados Numbers,665,10,"You will be given an array of N numbers, where everyone will be in pairs. But two of those numbers ended up without peer, these numbers are said apaixornados numbers, you can identify what are that numbers?
For example, A = {1, 1, 3, 3, 5, 5, 5,7}, the apaixornados numbers are 5 and 7."
2338,Morse,"1,423",4,"All your friends are crazy about the movie ""Interstellar"". They are now posting on facebook in Morse code. You need to write a code to decode Morse!!
These Morse codes only contain lowercase english letters(a-z) and whitespaces.
Note - Morse code is a way to encode characters as a sequence of dits and dashes. Each character has a fixed encoding. An example of a famous morse code is that of SOS ""...---..."" . S is encoded as ""..."" (dit dit dit) and O is encoded as ""---"" (dash dash dash).
In this problem, a dit is denoted by ""="" and a dash is denoted by ""==="". Symbols are seperated by ""."" , letters are seperated by ""..."" and words are seperated by ""......."" .
So, SOS is encoded as =.=.=...===.===.===...=.=.=
Encodings for all the characters can be found at the link given below.
http://morsecode.scphillips.com/morse2.html"
2370,Times,816,3,"As aulas de educação física, em muitas escolas, acontecem da seguinte maneira: O professor entrega uma bola ao alunos (geralmente de futebol) e estes se dividem em times, onde jogam partidas alternadamente.
A maneira como os times são escolhidos também é semelhante em todas as escolas: decide-se quantos times serão formados, e uma pessoa para montar cada um dos times. Cada pessoa vai escolher, alternadamente, um dos alunos restantes para fazer parte de sua equipe. Como todos querem ter uma boa equipe, a pessoa que vai escolher o próximo membro do time escolhe aquele, dentre os ainda disponíveis, que possui o melhor nível de habilidade. Assim, os times acabam ficando relativamente equilibrados na soma do nível de habilidade dos jogadores.
Dada uma lista de alunos que serão escolhidos e seus respectivos níveis de habilidade para os times e a quantidade de times que serão formados, mostre como ficarão os times ao final do processo de montagem dos mesmos."
2380,Fusões,887,4,"A informatização dos sistemas bancários permitiu grandes economias de tempo e dinheiro, permitindo que vários tipos de transações financeiras pudessem ser realizadas pela Internet. Para possibilitar isso, cada banco recebeu um código bancário, que é um número utilizado pelos sistemas de computador para identificar cada banco.
Quando um banco decide comprar outro, ocorre o que se chama uma fusão: os dois bancos tornam-se um só banco. Para manter compatibilidade com os sistemas eletrônicos dos bancos, qualquer um dos códigos dos antigos bancos pode ser usado para se referir ao novo banco.
Com a crise econômica internacional, as fusões entre bancos têm sido cada vez mais comuns; por isso, muitas vezes é difícil decidir se dois códigos bancários na realidade se referem ao mesmo banco (devido aos dois bancos terem se fundido, diretamente ou não).
Escreva um programa que, dada uma série de fusões entre bancos, responde a várias consultas perguntando se dois códigos bancários se referem ao mesmo banco."
2482,Noel's Labels,"2,262",2,"As usual, this year Noel received numerous gifts requests. However, due to some unforeseen circumstances, he will not be able to deliver all those present in person this year. Then he decided to use the old and good traditional mail, for some requests that can be delivered by letter.
For this task, he asked elf Evergreen Xadada to help him print labels on all the envelopes that will be destined for some of these children, whose request can be delivered by letter. Each of these labels should only contain the child's name and the ""Merry Christmas"" greeting in the child's language. To assist in this task, Noel provided a table with several languages and the name and country of each of the selected children, according to the example below. You should help Evergreen by making a program that prints these labels."
2488,É Na Batida do Cavalo!,112,5,"Furacão is a famous bookmaker, best known for winning every single horse racing bet in the past 10 years. Some say it's fraud, some say he has foolproof strategies to always win. Anyway, he's undeniable a great bookmaker. However, he's tired of winning so much, and thus, he has challenged the one who can make him lose. Considering this, CARRETA Furacão (Clube de Apostas para o Recomeço e para a Realização do Extermínio do Tal Apostador Furacão) was created with the sole purpose of making Furacão lose.
The first ""horse racing"" promoted by CARRETA Furacão will occur in a very different way from traditional racing: There'll be only one horse and this one, instead of racing, will walk the whole course in beat gait, after all, this ""race"" has the purpose of defeating the Bookmaker. The ""race"" will occur as follows: the horse starts its gait at a given point, and every time he passes by a course recognition point, the distance between the current point and the previous one will be calculated, in other words, at the end of the gait, there will be several isolated distances, each of them related to two points.
The challenge proposed to the Bookmaker is that he answers several questions such as ""What is the greatest distance the horse walks from point (x1, y1) to point (x2, y2)?"" in no more than 1 second! CARRETA Furacão is sure he's going to lose this time, but Furacão is a very smart man, so he perceived the possibility of hiring a programmer to do this work for him, that is, to create a program he can use in the event day to win the bet.
Upon knowing that you are a good programmer and that you take part in illegal activities if you get the 'good green', Furacão has hired you without a second thought. Therefore, your task is to write a program that outputs the greatest distance the horse walks between two given points. Keep in mind that there's only one way between two points."
2492,Ilhas Isoladas,407,3,"Friederich Estrotoratch, a famous mathematician and philosopher, recently bought several islands in the Pacific. Since he loves inverse functions with devout passion, he wants to connect these islands so that they resemble an inverse function. Estrotoratch hates to waste time on work he deems unnecessary, and therefore passed to Johann Fritz, his subordinate, the task of determining how exactly the connections bewteen the acquired islands would be. But Fritz isn't very mentally balanced (as well as his superior) and he's doing this work in one of his crisis.
Knowing his own not good at all situation, Fritz decided he would give you the connections for you to tell him whether they are correct. He wants you to say if the connections even form a function, and if they do, whether the function is invertible. So help the poor guy, because otherwise the consequences for him (that is, the punishments) are unpredictable."
2495,Where is my Pen?,516,7,"At the end of last month, I bought a set with N pens. It cost about 1/3 of my allowance, and on account of that, I decided to tell all my friends that I would not lend it to anyone. But last week, my cousin Jean borrowed it, saying she was going to give it back to me the next morning. Since she is family and would return soon, I decided to make an exception for her and end her all of them. Yes, I regretted it. Jean only gave it back to me this morning! I got it back, I checked if everything was in order. No, I was not! I noticed there were N-1 pens in my set. Since I was in a hurry to go to college, I ask you, Billie, to help me find which pen is missing. Consider that all pens are identified by integers in the interval [1, N]. I hope the pen that is missing is only lost! I can not stand the idea of Jean stealing from me!"
2496,The Only Chance,"1,055",2,"Everyone knows that the decisions that are made make all the difference in the result obtained. A well-known example is the Monty Hall paradox, which consists of three stages, and in the third, the competitor gives the final card and, depending on his choice, may or may not win a car.
You want to get an ""Accepted"" and for this you will have to write a program that checks if a single position change between two letters will result in an ordered sequence. Consider the following strings:
ABCDFGHIEJ
ABCDEFGHJIKLMNO
For the first sequence to be ordered, more than one change is required between the position of the letters. In the second, on the other hand, it is enough that I and J change positions. Its mission is to verify if for each sequence received there is a single exchange between two letters that makes it ordered."
2503,Regularity Race,49,9,"One typical kind of race is the Regularity Race. This race has a track to be covered at a constant velocity. To ensure the velocity there are several time control basis. The location of these basis are unknown by the competitors, this is intended to avoid that the competitors try to correct the time just arriving at the base. At every base has a time control counting in the form of penalty points, either for delays as for advances in time. At each control base, if the competitor is delayed, there is 1 point penalty for every second, limited to 1200 points (20 minutes delay) to each base. If the competitor is advanced, there is 2 points penalty for every second, limited to 1200 points (10 minutes advance) to each base. The winner is the one with less penalty points, if two or more has the same points, the winner is who has the smallest team number."
2506,Medical Clinic Queue,425,5,"Patients who arrive in the Medical Clinic queue go through a medical screening immediately, and then go to the queue to get medical care. In screening, the nurse notes the patient's time of entry and how many minutes he or she has until their health condition becomes critical. It is known that patients in the medical care queue are seen every 30 minutes (always in full hours or half an hour). The beginning of the screening and the attendance is given at 7:00 am, if there is no patient being treated and the queue is empty, the first patient is attended the moment he arrives at the screening. The doctor will attend every patient in the queue. The concern is whether any patient has reached critical condition while not being attended to. For this you have been invited to check in the queue how many patients reach the critical condition."
2519,Winning Strategy,124,6,"The Wildcats are in the big final of the Scholar Basketball Championship this year! An expert, coach Bolton is using his famous winning strategy to win the match and the tournament. However, to apply his strategy, he needs to count the number of opponents in some regions of the field often. Knowing this, the opponents also change their position often during the match!
Consider the field has N rows and M columns, numbered from 1 to N and from 1 to M. The figure exemplifies: (a) a field with N=3, M=4 and the initial positions of each opponent; (b) the opponent at position (1,2) moves to position (3,3); (c) there are now 3 opponents in the region between positions (1,3) and (3,4), inclusive.
Given the initial position of each opponent and their movements during the match, help the coach with his countings!"
2526,Menu,140,9,"The Federal University of Nlogônia (FUNl) has an University Restaurant (UR) that provides meals every day to all students in the university.
The restaurant’s menu is always composed by three distinct dishes: an entry, a side dish and a dessert. There are N dishes that can be used by the restaurant to make the menu. The dishes are very miscellaneous, such that any dish can be used as an entry, as a side dish or as a dessert.
However, the nutritionists demand the menu to be always well balanced. To that end, the entry must have less calories than the side dish, and the side dish must have less calories than the dessert. Also, the entry must have more fiber than the side dish, and the side dish must have more fiber than the dessert.
You task is to determine how many distinct menus can be made, i.e., in how many ways it is possible to select three dishes from the N available ones to make a valid menu."
2531,Shopping in FdI,749,8,"The Nlogonian Aquatic Surf Championship is about to start! Next year, the big final will be hosted in the city of Foça do Iguachim (FdI)! That region is famous due to the shops in there. The shops in that region usually sell many products cheaper than other shops in the country. You want to take advantage of your trip to buy the new Aifôni (R)! (Actually, you wanted a Sãosunga (R), but this cellphone is literally a boom!)
There are N shops, numbered from 1 to N. Every shop sells the cellphone, although its price may be different in each shop. Since you do not want your trip to be tiring, you may consider not visiting all N shops, but only shops between two given shops i and j, inclusive. You are interested in the largest price difference of the cellphone in these shops. Such difference is equal to |M - m|, where M is the highest price in these shops, and m is the lowest price in them.
Also, shops can change their price as they want! Your task is to determine, for many queries, the largest price difference in shops between two given shops, considering the prices may eventually change."
2537,GigaDrive,148,7,"TéquiToy is relaunching the Giga Drive, an old console very popular in the 90’s. To celebrate its relaunching, TéquiToy will also launch a “new” game this year: Giga Drive ChessBread 2! Actually, Giga Drive CheeseBread 2 is a clone, with a few modifications, of another old-but-famous game. Due to this, the rules are very similar to that old game.
In Giga Drive CheeseBread 2, the game’s board is a matrix with N rows and N columns. Initially, each cell is empty or contains an olive (?). A match consists of M rounds. At each round, the CPU puts an olive at an empty cell in the board. After that, it asks the players how many olives there are in region of the board between cells (I1,J1) and (I2,J2). In other words, the CPU indicates four integers I1, J1, I2 and J2, and asks the player the total number of olives in all cells in the i-th row and j-th columns such that I1 ≤ i ≤ I2 and J1 ≤ j ≤ J2.
To win the game, you must correctly answer the count in all rounds in the match! However, you do not have much time to count the olives, so you decided to write a program to ensure your victory!"
2538,Gym,242,9,"Analógimôn Go! is a very popular game. During his quest, the player travels across many cities capturing virtual little monsters called analógimôns. The cities contain specifics locations called gyms. When entering a gym, a player may try to put one of his analógimôns inside the gym.
There are two integers associated to each analógimôn: its Combat Power (CP) and its Number of Attacks (NA). Also, there is an integer associated to each gym, its Power Interval (PI). When trying to put an analógimôn inside a gym, the game calculates the number of análogimôns that are already in the gym and which difference of its CP and the CP of the analógimôn being put is at most PI. If this number is less than or equal to the NA of the analógimôn being put, then that analógimôn is successfully put in the gym. Otherwise, it is not put in the gym. In both cases, analógimôns that were already in the gym continue in the gym.
For example, consider a gym with PI=3 containing analógimôns whose CPs are equal to 5, 8, 13 and 20. If a player tries to put an analógimôn with CP=10 and NA=4, the game will count how many analógimôns are in the gym with PC between 10 - 3 = 7 and 10 + 3 = 13, inclusive. Since there are 2 of such analógimôns, the little monster is successfully put in the gym, since 2 ≤ 4. The gym now contains analógimôns whose CPs are equal to 5, 8, 10, 13 and 20.
Given the information about a gym and the analógimôns tried to be put in it, determine how many analógimôns will be inside the gym after all attempts. Consider that, initially, the gym is empty (i.e., it has no analógimôn inside it)."
2539,High Five,321,8,"The Nlogonian Basketball Team will play the final match of the Basketball World Cup, and the match is about to begin! Right now, the N players are warming up before entering the field.
Players are numbered from 1 to N. Initially, the players are arranged in a line in the edge of the field. The players will enter the field one at a time, in the same order as their number. Hence, player 1 is the first one to leave the line and enter the field. After that, player 2 will leave the line and enter the field, and so on.
When leaving the line, each player salutes every other player that are in front of him in the line with a high five. For example, consider that N=4 and the initial line is 3 1 2 4, where player 4 is the nearest one to the field. Player 1, while going to the field, will salute players 2 and 4 with a high five. Then, player 2 will salute with a high five only the player 4, and will then leave the line. Player 3 also salutes player 4 only (notice that both players 1 and 2 have left the line already). Finally, the last player does not salute anyone.
Your task is to determine the total number of high fives that will occur."
